{
    "longDescription": "Diginorm: Normalization process for metagenomic data before feeding it to assembler",
    "outputs": [],
    "inputs": [
        {
            "defaultValue": "",
            "details": {
                "visible": true,
                "description": "",
                "label": "Hash File"
            },
            "id": "hashfile",
            "semantics": {
                "minCardinality": 1,
                "ontology": ["http://sswapmeet.sswap.info/sequence/FASTA"],
                "fileTypes": ["fasta-0"]
            },
            "value": {
                "default": "",
                "visible": true,
                "validator": "",
                "required": false
            }
        },
        {
            "defaultValue": "",
            "details": {
                "visible": true,
                "description": "Sequence file in fastq, fasta, or sam format",
                "label": "Normalize Files:"
            },
            "id": "normalize_file",
            "semantics": {
                "minCardinality": 1,
                "ontology": ["http://sswapmeet.sswap.info/sequence/FASTA"],
                "fileTypes": ["fasta-0"]
            },
            "value": {
                "default": "",
                "visible": true,
                "validator": "",
                "required": false
            }
        },
        {
            "defaultValue": "",
            "details": {
                "visible": true,
                "description": "",
                "label": "Data file"
            },
            "id": "trim_file",
            "semantics": {
                "minCardinality": 1,
                "ontology": ["http://sswapmeet.sswap.info/sequence/FASTA"],
                "fileTypes": ["fasta-0"]
            },
            "value": {
                "default": "",
                "visible": true,
                "validator": "",
                "required": false
            }
        },
        {
            "defaultValue": "",
            "details": {
                "visible": true,
                "description": "",
                "label": "Input file"
            },
            "id": "split_input",
            "semantics": {
                "minCardinality": 1,
                "ontology": ["http://sswapmeet.sswap.info/sequence/FASTA"],
                "fileTypes": ["fasta-0"]
            },
            "value": {
                "default": "",
                "visible": true,
                "validator": "",
                "required": false
            }
        }
    ],
    "parallelism": "PARALLEL",
    "executionType": "HPC",
    "available": true,
    "defaultProcessors": null,
    "executionHost": "stampede.tacc.xsede.org",
    "public": true,
    "defaultMemory": null,
    "id": "diginorm-1.0.0u1",
    "checkpointable": true,
    "deploymentPath": "/ipcservices/applications/diginorm-1.0.0u1.zip",
    "label": "Diginorm 1.0.0",
    "shortDescription": "Diginorm: Normalization process for metagenomic data before feeding it to assembler",
    "helpURI": "http://ged.msu.edu/angus/diginorm-2012/tutorial.html",
    "defaultRequestedTime": null,
    "version": "1.0.0",
    "templatePath": "foundation-diginorm.sh",
    "modules": [
        "purge",
        "load TACC",
        "load irods",
        "load python"
    ],
    "revision": 1,
    "tags": [
        "diginorm",
        "normalize",
        "assembler",
        "NGS",
        "Illumina",
        " 454",
        "EBI",
        "MetaVelvet",
        "metagenomics"
    ],
    "testPath": "foundation-diginorm.sh",
    "ontolog": ["http://sswapmeet.sswap.info/sequenceServices/SequenceServices"],
    "name": "diginorm",
    "parameters": [
        {
            "defaultValue": "",
            "details": {
                "description": null,
                "label": "Kmer Size"
            },
            "id": "kmer",
            "semantics": {"ontology": ["xs:string"]},
            "value": {
                "default": "",
                "visible": true,
                "validator": "",
                "type": "string",
                "required": false
            }
        },
        {
            "defaultValue": "4",
            "details": {
                "description": null,
                "label": "Number of hashes"
            },
            "id": "hashes",
            "semantics": {"ontology": ["xs:string"]},
            "value": {
                "default": "4",
                "visible": true,
                "validator": "",
                "type": "string",
                "required": false
            }
        },
        {
            "defaultValue": "",
            "details": {
                "description": null,
                "label": "minimum hash size"
            },
            "id": "x",
            "semantics": {"ontology": ["xs:string"]},
            "value": {
                "default": "",
                "visible": true,
                "validator": "",
                "type": "string",
                "required": false
            }
        },
        {
            "defaultValue": "",
            "details": {
                "description": null,
                "label": "Diginorm Flag"
            },
            "id": "flag",
            "semantics": {"ontology": ["xs:string"]},
            "value": {
                "default": "",
                "visible": true,
                "validator": "",
                "type": "string",
                "required": true
            }
        },
        {
            "defaultValue": "",
            "details": {
                "description": null,
                "label": "Cut off"
            },
            "id": "cutoff",
            "semantics": {"ontology": ["xs:string"]},
            "value": {
                "default": "",
                "visible": true,
                "validator": "",
                "type": "string",
                "required": false
            }
        },
        {
            "defaultValue": "savehash.kh",
            "details": {
                "description": null,
                "label": "Save hash output file"
            },
            "id": "savehash",
            "semantics": {"ontology": ["xs:string"]},
            "value": {
                "default": "savehash.kh",
                "visible": true,
                "validator": "",
                "type": "string",
                "required": false
            }
        }
    ]
}