{
    "longDescription": "",
    "outputs": [],
    "inputs": [{
        "defaultValue": "/shared/iplantcollaborative/example_data/tophat/athaliana_rna.fq",
        "details": {
            "visible": true,
            "description": "",
            "label": "FASTQ sequence library 1"
        },
        "id": "input",
        "semantics": {
            "minCardinality": 1,
            "ontology": ["http://sswapmeet.sswap.info/util/Sequence"],
            "fileTypes": ["fastq-0"]
        },
        "value": {
            "default": "/shared/iplantcollaborative/example_data/tophat/athaliana_rna.fq",
            "visible": true,
            "validator": "",
            "required": true
        }
    }],
    "parallelism": "SERIAL",
    "executionType": "HPC",
    "available": true,
    "defaultProcessors": 1,
    "executionHost": "lonestar4.tacc.teragrid.org",
    "public": true,
    "defaultMemory": 4,
    "id": "dnalc-fastqc-lonestar-0.10.1u1",
    "checkpointable": false,
    "deploymentPath": "/ipcservices/applications/dnalc-fastqc-lonestar-0.10.1u1.zip",
    "label": "FastQC",
    "shortDescription": "",
    "helpURI": "http://hannonlab.cshl.edu/fastx_toolkit/",
    "defaultRequestedTime": "0:45:00",
    "version": "0.10.1",
    "templatePath": "fastqc.sh",
    "modules": [
        "purge",
        "load TACC",
        "load irods"
    ],
    "revision": 1,
    "tags": ["next-gen"],
    "testPath": "library/test.sh",
    "ontolog": ["http://sswap.info/iPlant/FoundationalAPI"],
    "name": "dnalc-fastqc-lonestar",
    "parameters": []
}