{
    "longDescription": "",
    "outputs": [],
    "inputs": [
        {
            "defaultValue": "",
            "details": {
                "visible": true,
                "description": "",
                "label": "FASTQ sequence library 1"
            },
            "id": "query9",
            "semantics": {
                "minCardinality": 1,
                "ontology": ["http://sswapmeet.sswap.info/util/Sequence"],
                "fileTypes": ["fastq-0"]
            },
            "value": {
                "default": "",
                "visible": true,
                "validator": "",
                "required": false
            }
        },
        {
            "defaultValue": "",
            "details": {
                "visible": true,
                "description": "",
                "label": "FASTQ sequence library 1"
            },
            "id": "query4",
            "semantics": {
                "minCardinality": 1,
                "ontology": ["http://sswapmeet.sswap.info/util/Sequence"],
                "fileTypes": ["fastq-0"]
            },
            "value": {
                "default": "",
                "visible": true,
                "validator": "",
                "required": false
            }
        },
        {
            "defaultValue": "",
            "details": {
                "visible": true,
                "description": "",
                "label": "FASTQ sequence library 1"
            },
            "id": "query6",
            "semantics": {
                "minCardinality": 1,
                "ontology": ["http://sswapmeet.sswap.info/util/Sequence"],
                "fileTypes": ["fastq-0"]
            },
            "value": {
                "default": "",
                "visible": true,
                "validator": "",
                "required": false
            }
        },
        {
            "defaultValue": "",
            "details": {
                "visible": true,
                "description": "",
                "label": "FASTQ sequence library 1"
            },
            "id": "query5",
            "semantics": {
                "minCardinality": 1,
                "ontology": ["http://sswapmeet.sswap.info/util/Sequence"],
                "fileTypes": ["fastq-0"]
            },
            "value": {
                "default": "",
                "visible": true,
                "validator": "",
                "required": false
            }
        },
        {
            "defaultValue": "",
            "details": {
                "visible": true,
                "description": "",
                "label": "FASTQ sequence library 1"
            },
            "id": "query7",
            "semantics": {
                "minCardinality": 1,
                "ontology": ["http://sswapmeet.sswap.info/util/Sequence"],
                "fileTypes": ["fastq-0"]
            },
            "value": {
                "default": "",
                "visible": true,
                "validator": "",
                "required": false
            }
        },
        {
            "defaultValue": "",
            "details": {
                "visible": true,
                "description": "",
                "label": "FASTQ sequence library 1"
            },
            "id": "query10",
            "semantics": {
                "minCardinality": 1,
                "ontology": ["http://sswapmeet.sswap.info/util/Sequence"],
                "fileTypes": ["fastq-0"]
            },
            "value": {
                "default": "",
                "visible": true,
                "validator": "",
                "required": false
            }
        },
        {
            "defaultValue": "/smckay/cuffdiff_test/genome.fas",
            "details": {
                "visible": true,
                "description": "Tells CuffDiff to run its new bias detection and correction algorithm which can significantly improve accuracy of transcrip abundance estimates.",
                "label": "Genome FASTA file"
            },
            "id": "ref_seq",
            "semantics": {
                "minCardinality": 1,
                "ontology": ["http://sswapmeet.sswap.info/util/Annotation"],
                "fileTypes": ["FASTA-0"]
            },
            "value": {
                "default": "/smckay/cuffdiff_test/genome.fas",
                "visible": true,
                "validator": "",
                "required": false
            }
        },
        {
            "defaultValue": "",
            "details": {
                "visible": true,
                "description": "",
                "label": "FASTQ sequence library 1"
            },
            "id": "query11",
            "semantics": {
                "minCardinality": 1,
                "ontology": ["http://sswapmeet.sswap.info/util/Sequence"],
                "fileTypes": ["fastq-0"]
            },
            "value": {
                "default": "",
                "visible": true,
                "validator": "",
                "required": false
            }
        },
        {
            "defaultValue": "",
            "details": {
                "visible": true,
                "description": "",
                "label": "FASTQ sequence library 1"
            },
            "id": "query12",
            "semantics": {
                "minCardinality": 1,
                "ontology": ["http://sswapmeet.sswap.info/util/Sequence"],
                "fileTypes": ["fastq-0"]
            },
            "value": {
                "default": "",
                "visible": true,
                "validator": "",
                "required": false
            }
        },
        {
            "defaultValue": "",
            "details": {
                "visible": true,
                "description": "",
                "label": "FASTQ sequence library 1"
            },
            "id": "query8",
            "semantics": {
                "minCardinality": 1,
                "ontology": ["http://sswapmeet.sswap.info/util/Sequence"],
                "fileTypes": ["fastq-0"]
            },
            "value": {
                "default": "",
                "visible": true,
                "validator": "",
                "required": false
            }
        },
        {
            "defaultValue": "",
            "details": {
                "visible": true,
                "description": "",
                "label": "FASTQ sequence library 1"
            },
            "id": "query2",
            "semantics": {
                "minCardinality": 1,
                "ontology": ["http://sswapmeet.sswap.info/util/Sequence"],
                "fileTypes": ["fastq-0"]
            },
            "value": {
                "default": "",
                "visible": true,
                "validator": "",
                "required": false
            }
        },
        {
            "defaultValue": "/shared/iplant_DNA_subway/sample_data/fastq/arabidopsis_thaliana/WT_rep1.fastq",
            "details": {
                "visible": true,
                "description": "",
                "label": "FASTQ sequence library 1"
            },
            "id": "query1",
            "semantics": {
                "minCardinality": 1,
                "ontology": ["http://sswapmeet.sswap.info/util/Sequence"],
                "fileTypes": ["fastq-0"]
            },
            "value": {
                "default": "/shared/iplant_DNA_subway/sample_data/fastq/arabidopsis_thaliana/WT_rep1.fastq",
                "visible": true,
                "validator": "",
                "required": false
            }
        },
        {
            "defaultValue": "",
            "details": {
                "visible": true,
                "description": "",
                "label": "FASTQ sequence library 1"
            },
            "id": "query3",
            "semantics": {
                "minCardinality": 1,
                "ontology": ["http://sswapmeet.sswap.info/util/Sequence"],
                "fileTypes": ["fastq-0"]
            },
            "value": {
                "default": "",
                "visible": true,
                "validator": "",
                "required": false
            }
        }
    ],
    "parallelism": "SERIAL",
    "executionType": "HPC",
    "available": true,
    "defaultProcessors": 1,
    "executionHost": "stampede.tacc.xsede.org",
    "public": true,
    "defaultMemory": 4,
    "id": "dnalc-cuffmerge-stampede-2.1.1u1",
    "checkpointable": false,
    "deploymentPath": "/ipcservices/applications/dnalc-cuffmerge-stampede-2.1.1u1.zip",
    "label": "CuffMerge",
    "shortDescription": "Transcript assembly and merge for RNA-Seq data",
    "helpURI": "http://cufflinks.cbcb.umd.edu/",
    "defaultRequestedTime": "2:00:00",
    "version": "2.1.1",
    "templatePath": "cuffmerge.sh",
    "modules": [
        "purge",
        "load TACC",
        "load irods",
        "load samtools"
    ],
    "revision": 1,
    "tags": [
        "next-gen",
        "assembly",
        "rnaseq"
    ],
    "testPath": "library/test.sh",
    "ontolog": ["http://sswap.info/iPlant/FoundationalAPI"],
    "name": "dnalc-cuffmerge-stampede",
    "parameters": [{
        "defaultValue": "cuffmerge",
        "details": {
            "description": "the name of the itinerant cuffmerge job",
            "label": "job name"
        },
        "id": "jobName",
        "semantics": {"ontology": ["xs:string"]},
        "value": {
            "default": "cuffmerge",
            "visible": true,
            "validator": "",
            "type": "string",
            "required": true
        }
    }]
}