{
    "longDescription": "",
    "outputs": [],
    "inputs": [{
        "defaultValue": "/shared/iplantcollaborative/example_data/tophat/athaliana_rna.fq",
        "details": {
            "visible": true,
            "description": "",
            "label": "FASTQ sequence library 1"
        },
        "id": "seq1",
        "semantics": {
            "minCardinality": 1,
            "ontology": ["http://sswapmeet.sswap.info/util/Sequence"],
            "fileTypes": ["fastq-0"]
        },
        "value": {
            "default": "/shared/iplantcollaborative/example_data/tophat/athaliana_rna.fq",
            "visible": true,
            "validator": "",
            "required": true
        }
    }],
    "parallelism": "SERIAL",
    "executionType": "HPC",
    "available": true,
    "defaultProcessors": 1,
    "executionHost": "lonestar4.tacc.teragrid.org",
    "public": true,
    "defaultMemory": 4,
    "id": "dnalc-fxtrim-lonestar-0.0.13.2u1",
    "checkpointable": false,
    "deploymentPath": "/ipcservices/applications/dnalc-fxtrim-lonestar-0.0.13.2u1.zip",
    "label": "Fastx_toolkit",
    "shortDescription": "FASTQ/A short-reads pre-processing tools",
    "helpURI": "http://hannonlab.cshl.edu/fastx_toolkit/",
    "defaultRequestedTime": "3:00:00",
    "version": "0.0.13.2",
    "templatePath": "fastx.sh",
    "modules": [
        "purge",
        "load TACC",
        "load fastx_toolkit/0.0.13.2",
        "load irods"
    ],
    "revision": 1,
    "tags": [
        "next-gen",
        "assembly",
        "rnaseq"
    ],
    "testPath": "library/test.sh",
    "ontolog": ["http://sswap.info/iPlant/FoundationalAPI"],
    "name": "dnalc-fxtrim-lonestar",
    "parameters": [
        {
            "defaultValue": "200",
            "details": {
                "description": "Trim all bases 5-Primer to this nucleotide position (default: nine)",
                "label": "Last base to keep"
            },
            "id": "last",
            "semantics": {"ontology": ["xs:integer"]},
            "value": {
                "default": "200",
                "visible": true,
                "validator": "",
                "type": "number",
                "required": false
            }
        },
        {
            "defaultValue": "20",
            "details": {
                "description": "This is the quality score below which the ends of reads will be trimmed (default: 20)",
                "label": "Minimum quality threshold for trimming"
            },
            "id": "quality_threshold",
            "semantics": {"ontology": ["xs:integer"]},
            "value": {
                "default": "20",
                "visible": true,
                "validator": "",
                "type": "number",
                "required": false
            }
        },
        {
            "defaultValue": "20",
            "details": {
                "description": "Reads with the specified percentage of quality scores below this threshold will be filtered out (default: 20)",
                "label": "Minimum quality threshold for filtering"
            },
            "id": "min_quality",
            "semantics": {"ontology": ["xs:integer"]},
            "value": {
                "default": "20",
                "visible": true,
                "validator": "",
                "type": "number",
                "required": false
            }
        },
        {
            "defaultValue": "20",
            "details": {
                "description": "Trimmed sequences shorter than this will be discarded (default: 20)",
                "label": "Minimum trimmed read length"
            },
            "id": "min_length",
            "semantics": {"ontology": ["xs:integer"]},
            "value": {
                "default": "20",
                "visible": true,
                "validator": "",
                "type": "number",
                "required": false
            }
        },
        {
            "defaultValue": "50",
            "details": {
                "description": "Sequences with this percentage of low quality bases will be discarded (default: 50)",
                "label": "Percent bases with minimum or greater quality score"
            },
            "id": "percent_bases",
            "semantics": {"ontology": ["xs:double"]},
            "value": {
                "default": "50",
                "visible": true,
                "validator": "",
                "type": "number",
                "required": false
            }
        },
        {
            "defaultValue": "1",
            "details": {
                "description": "Trim the 3-primer end of the read up to this nucleotide position (default:1)",
                "label": "First base to keep"
            },
            "id": "first",
            "semantics": {"ontology": ["xs:integer"]},
            "value": {
                "default": "1",
                "visible": true,
                "validator": "",
                "type": "number",
                "required": false
            }
        },
        {
            "defaultValue": "tophat",
            "details": {
                "description": "the name of the itinerant tophat job",
                "label": "job name"
            },
            "id": "jobName",
            "semantics": {"ontology": ["xs:string"]},
            "value": {
                "default": "tophat",
                "visible": true,
                "validator": "",
                "type": "string",
                "required": true
            }
        }
    ]
}