{
    "longDescription": "",
    "outputs": [],
    "inputs": [
        {
            "defaultValue": "/smckay/cuffdiff_test/annotation.gtf",
            "details": {
                "visible": true,
                "description": "A transcript annotation file produced by cufflinks, cuffcompare, or other source.",
                "label": "Reference annotation"
            },
            "id": "ref_gtf",
            "semantics": {
                "minCardinality": 1,
                "ontology": ["http://sswapmeet.sswap.info/util/Annotation"],
                "fileTypes": [
                    "GTF-2.2",
                    "GFF-3.0"
                ]
            },
            "value": {
                "default": "/smckay/cuffdiff_test/annotation.gtf",
                "visible": true,
                "validator": "",
                "required": false
            }
        },
        {
            "defaultValue": "",
            "details": {
                "visible": true,
                "description": "",
                "label": "RNA reads aligned with TopHat 4"
            },
            "id": "sam5_f3",
            "semantics": {
                "minCardinality": 1,
                "ontology": ["http://sswapmeet.sswap.info/util/Alignment"],
                "fileTypes": [
                    "BAM-0.1.2",
                    "SAM-0.1.2"
                ]
            },
            "value": {
                "default": "",
                "visible": true,
                "validator": "",
                "required": false
            }
        },
        {
            "defaultValue": "",
            "details": {
                "visible": true,
                "description": "",
                "label": "RNA reads aligned with TopHat 4"
            },
            "id": "sam9_f1",
            "semantics": {
                "minCardinality": 1,
                "ontology": ["http://sswapmeet.sswap.info/util/Alignment"],
                "fileTypes": [
                    "BAM-0.1.2",
                    "SAM-0.1.2"
                ]
            },
            "value": {
                "default": "",
                "visible": true,
                "validator": "",
                "required": false
            }
        },
        {
            "defaultValue": "",
            "details": {
                "visible": true,
                "description": "",
                "label": "A transcripts.gtf file produced by cufflinks"
            },
            "id": "query10",
            "semantics": {
                "minCardinality": 1,
                "ontology": ["http://sswapmeet.sswap.info/util/Alignment"],
                "fileTypes": ["GTF-2.2"]
            },
            "value": {
                "default": "",
                "visible": true,
                "validator": "",
                "required": false
            }
        },
        {
            "defaultValue": "",
            "details": {
                "visible": true,
                "description": "",
                "label": "RNA reads aligned with TopHat 4"
            },
            "id": "sam4_f2",
            "semantics": {
                "minCardinality": 1,
                "ontology": ["http://sswapmeet.sswap.info/util/Alignment"],
                "fileTypes": [
                    "BAM-0.1.2",
                    "SAM-0.1.2"
                ]
            },
            "value": {
                "default": "",
                "visible": true,
                "validator": "",
                "required": false
            }
        },
        {
            "defaultValue": "",
            "details": {
                "visible": true,
                "description": "",
                "label": "RNA reads aligned with TopHat 4"
            },
            "id": "sam3_f4",
            "semantics": {
                "minCardinality": 1,
                "ontology": ["http://sswapmeet.sswap.info/util/Alignment"],
                "fileTypes": [
                    "BAM-0.1.2",
                    "SAM-0.1.2"
                ]
            },
            "value": {
                "default": "",
                "visible": true,
                "validator": "",
                "required": false
            }
        },
        {
            "defaultValue": "/smckay/cuffdiff_test/genome.fas",
            "details": {
                "visible": true,
                "description": "Tells CuffDiff to run its new bias detection and correction algorithm which can significantly improve accuracy of transcript abundance estimates.",
                "label": "Genome FASTA file"
            },
            "id": "ref_seq",
            "semantics": {
                "minCardinality": 1,
                "ontology": ["http://sswapmeet.sswap.info/util/Annotation"],
                "fileTypes": ["FASTA-0"]
            },
            "value": {
                "default": "/smckay/cuffdiff_test/genome.fas",
                "visible": true,
                "validator": "",
                "required": false
            }
        },
        {
            "defaultValue": "",
            "details": {
                "visible": true,
                "description": "",
                "label": "A transcripts.gtf file produced by cufflinks"
            },
            "id": "query9",
            "semantics": {
                "minCardinality": 1,
                "ontology": ["http://sswapmeet.sswap.info/util/Alignment"],
                "fileTypes": ["GTF-2.2"]
            },
            "value": {
                "default": "",
                "visible": true,
                "validator": "",
                "required": false
            }
        },
        {
            "defaultValue": "",
            "details": {
                "visible": true,
                "description": "",
                "label": "A transcripts.gtf file produced by cufflinks"
            },
            "id": "query12",
            "semantics": {
                "minCardinality": 1,
                "ontology": ["http://sswapmeet.sswap.info/util/Alignment"],
                "fileTypes": ["GTF-2.2"]
            },
            "value": {
                "default": "",
                "visible": true,
                "validator": "",
                "required": false
            }
        },
        {
            "defaultValue": "",
            "details": {
                "visible": true,
                "description": "",
                "label": "RNA reads aligned with TopHat 4"
            },
            "id": "sam4_f1",
            "semantics": {
                "minCardinality": 1,
                "ontology": ["http://sswapmeet.sswap.info/util/Alignment"],
                "fileTypes": [
                    "BAM-0.1.2",
                    "SAM-0.1.2"
                ]
            },
            "value": {
                "default": "",
                "visible": true,
                "validator": "",
                "required": false
            }
        },
        {
            "defaultValue": "/smckay/cuffdiff_test/gtf/WT_rep2_transcipts.gtf",
            "details": {
                "visible": true,
                "description": "",
                "label": "A transcripts.gtf file produced by cufflinks"
            },
            "id": "query2",
            "semantics": {
                "minCardinality": 1,
                "ontology": ["http://sswapmeet.sswap.info/util/Alignment"],
                "fileTypes": ["GTF-2.2"]
            },
            "value": {
                "default": "/smckay/cuffdiff_test/gtf/WT_rep2_transcipts.gtf",
                "visible": true,
                "validator": "",
                "required": false
            }
        },
        {
            "defaultValue": "",
            "details": {
                "visible": true,
                "description": "",
                "label": "RNA reads aligned with TopHat 4"
            },
            "id": "sam7_f4",
            "semantics": {
                "minCardinality": 1,
                "ontology": ["http://sswapmeet.sswap.info/util/Alignment"],
                "fileTypes": [
                    "BAM-0.1.2",
                    "SAM-0.1.2"
                ]
            },
            "value": {
                "default": "",
                "visible": true,
                "validator": "",
                "required": false
            }
        },
        {
            "defaultValue": "",
            "details": {
                "visible": true,
                "description": "",
                "label": "RNA reads aligned with TopHat 3"
            },
            "id": "sam1_f4",
            "semantics": {
                "minCardinality": 1,
                "ontology": ["http://sswapmeet.sswap.info/util/Alignment"],
                "fileTypes": [
                    "BAM-0.1.2",
                    "SAM-0.1.2"
                ]
            },
            "value": {
                "default": "",
                "visible": true,
                "validator": "",
                "required": false
            }
        },
        {
            "defaultValue": "",
            "details": {
                "visible": true,
                "description": "",
                "label": "RNA reads aligned with TopHat 4"
            },
            "id": "sam8_f4",
            "semantics": {
                "minCardinality": 1,
                "ontology": ["http://sswapmeet.sswap.info/util/Alignment"],
                "fileTypes": [
                    "BAM-0.1.2",
                    "SAM-0.1.2"
                ]
            },
            "value": {
                "default": "",
                "visible": true,
                "validator": "",
                "required": false
            }
        },
        {
            "defaultValue": "",
            "details": {
                "visible": true,
                "description": "",
                "label": "RNA reads aligned with TopHat 4"
            },
            "id": "sam10_f1",
            "semantics": {
                "minCardinality": 1,
                "ontology": ["http://sswapmeet.sswap.info/util/Alignment"],
                "fileTypes": [
                    "BAM-0.1.2",
                    "SAM-0.1.2"
                ]
            },
            "value": {
                "default": "",
                "visible": true,
                "validator": "",
                "required": false
            }
        },
        {
            "defaultValue": "",
            "details": {
                "visible": true,
                "description": "",
                "label": "RNA reads aligned with TopHat 4"
            },
            "id": "sam3_f3",
            "semantics": {
                "minCardinality": 1,
                "ontology": ["http://sswapmeet.sswap.info/util/Alignment"],
                "fileTypes": [
                    "BAM-0.1.2",
                    "SAM-0.1.2"
                ]
            },
            "value": {
                "default": "",
                "visible": true,
                "validator": "",
                "required": false
            }
        },
        {
            "defaultValue": "",
            "details": {
                "visible": true,
                "description": "",
                "label": "RNA reads aligned with TopHat 4"
            },
            "id": "sam6_f4",
            "semantics": {
                "minCardinality": 1,
                "ontology": ["http://sswapmeet.sswap.info/util/Alignment"],
                "fileTypes": [
                    "BAM-0.1.2",
                    "SAM-0.1.2"
                ]
            },
            "value": {
                "default": "",
                "visible": true,
                "validator": "",
                "required": false
            }
        },
        {
            "defaultValue": "",
            "details": {
                "visible": true,
                "description": "",
                "label": "RNA reads aligned with TopHat 4"
            },
            "id": "sam2_f3",
            "semantics": {
                "minCardinality": 1,
                "ontology": ["http://sswapmeet.sswap.info/util/Alignment"],
                "fileTypes": [
                    "BAM-0.1.2",
                    "SAM-0.1.2"
                ]
            },
            "value": {
                "default": "",
                "visible": true,
                "validator": "",
                "required": false
            }
        },
        {
            "defaultValue": "",
            "details": {
                "visible": true,
                "description": "",
                "label": "RNA reads aligned with TopHat 4"
            },
            "id": "sam9_f2",
            "semantics": {
                "minCardinality": 1,
                "ontology": ["http://sswapmeet.sswap.info/util/Alignment"],
                "fileTypes": [
                    "BAM-0.1.2",
                    "SAM-0.1.2"
                ]
            },
            "value": {
                "default": "",
                "visible": true,
                "validator": "",
                "required": false
            }
        },
        {
            "defaultValue": "/smckay/cuffdiff_test/gtf/WT_rep2_transcipts.gtf",
            "details": {
                "visible": true,
                "description": "",
                "label": "A transcripts.gtf file produced by cufflinks"
            },
            "id": "query1",
            "semantics": {
                "minCardinality": 1,
                "ontology": ["http://sswapmeet.sswap.info/util/Alignment"],
                "fileTypes": ["GTF-2.2"]
            },
            "value": {
                "default": "/smckay/cuffdiff_test/gtf/WT_rep2_transcipts.gtf",
                "visible": true,
                "validator": "",
                "required": false
            }
        },
        {
            "defaultValue": "",
            "details": {
                "visible": true,
                "description": "",
                "label": "RNA reads aligned with TopHat 4"
            },
            "id": "sam7_f3",
            "semantics": {
                "minCardinality": 1,
                "ontology": ["http://sswapmeet.sswap.info/util/Alignment"],
                "fileTypes": [
                    "BAM-0.1.2",
                    "SAM-0.1.2"
                ]
            },
            "value": {
                "default": "",
                "visible": true,
                "validator": "",
                "required": false
            }
        },
        {
            "defaultValue": "",
            "details": {
                "visible": true,
                "description": "",
                "label": "RNA reads aligned with TopHat 4"
            },
            "id": "sam3_f2",
            "semantics": {
                "minCardinality": 1,
                "ontology": ["http://sswapmeet.sswap.info/util/Alignment"],
                "fileTypes": [
                    "BAM-0.1.2",
                    "SAM-0.1.2"
                ]
            },
            "value": {
                "default": "",
                "visible": true,
                "validator": "",
                "required": false
            }
        },
        {
            "defaultValue": "",
            "details": {
                "visible": true,
                "description": "",
                "label": "RNA reads aligned with TopHat 4"
            },
            "id": "sam4_f4",
            "semantics": {
                "minCardinality": 1,
                "ontology": ["http://sswapmeet.sswap.info/util/Alignment"],
                "fileTypes": [
                    "BAM-0.1.2",
                    "SAM-0.1.2"
                ]
            },
            "value": {
                "default": "",
                "visible": true,
                "validator": "",
                "required": false
            }
        },
        {
            "defaultValue": "",
            "details": {
                "visible": true,
                "description": "",
                "label": "RNA reads aligned with TopHat 4"
            },
            "id": "sam2_f4",
            "semantics": {
                "minCardinality": 1,
                "ontology": ["http://sswapmeet.sswap.info/util/Alignment"],
                "fileTypes": [
                    "BAM-0.1.2",
                    "SAM-0.1.2"
                ]
            },
            "value": {
                "default": "",
                "visible": true,
                "validator": "",
                "required": false
            }
        },
        {
            "defaultValue": "",
            "details": {
                "visible": true,
                "description": "",
                "label": "RNA reads aligned with TopHat 4"
            },
            "id": "sam6_f2",
            "semantics": {
                "minCardinality": 1,
                "ontology": ["http://sswapmeet.sswap.info/util/Alignment"],
                "fileTypes": [
                    "BAM-0.1.2",
                    "SAM-0.1.2"
                ]
            },
            "value": {
                "default": "",
                "visible": true,
                "validator": "",
                "required": false
            }
        },
        {
            "defaultValue": "/smckay/cuffdiff_test/WT_rep1.bam",
            "details": {
                "visible": true,
                "description": "",
                "label": "RNA reads aligned with TopHat 1"
            },
            "id": "sam1_f1",
            "semantics": {
                "minCardinality": 1,
                "ontology": ["http://sswapmeet.sswap.info/util/Alignment"],
                "fileTypes": [
                    "BAM-0.1.2",
                    "SAM-0.1.2"
                ]
            },
            "value": {
                "default": "/smckay/cuffdiff_test/WT_rep1.bam",
                "visible": true,
                "validator": "",
                "required": true
            }
        },
        {
            "defaultValue": "",
            "details": {
                "visible": true,
                "description": "",
                "label": "RNA reads aligned with TopHat 4"
            },
            "id": "sam8_f2",
            "semantics": {
                "minCardinality": 1,
                "ontology": ["http://sswapmeet.sswap.info/util/Alignment"],
                "fileTypes": [
                    "BAM-0.1.2",
                    "SAM-0.1.2"
                ]
            },
            "value": {
                "default": "",
                "visible": true,
                "validator": "",
                "required": false
            }
        },
        {
            "defaultValue": "",
            "details": {
                "visible": true,
                "description": "",
                "label": "A transcripts.gtf file produced by cufflinks"
            },
            "id": "query5",
            "semantics": {
                "minCardinality": 1,
                "ontology": ["http://sswapmeet.sswap.info/util/Alignment"],
                "fileTypes": ["GTF-2.2"]
            },
            "value": {
                "default": "",
                "visible": true,
                "validator": "",
                "required": false
            }
        },
        {
            "defaultValue": "/smckay/cuffdiff_test/hy5_rep1.bam",
            "details": {
                "visible": true,
                "description": "",
                "label": "RNA reads aligned with TopHat 4"
            },
            "id": "sam2_f1",
            "semantics": {
                "minCardinality": 1,
                "ontology": ["http://sswapmeet.sswap.info/util/Alignment"],
                "fileTypes": [
                    "BAM-0.1.2",
                    "SAM-0.1.2"
                ]
            },
            "value": {
                "default": "/smckay/cuffdiff_test/hy5_rep1.bam",
                "visible": true,
                "validator": "",
                "required": true
            }
        },
        {
            "defaultValue": "",
            "details": {
                "visible": true,
                "description": "",
                "label": "RNA reads aligned with TopHat 4"
            },
            "id": "sam6_f1",
            "semantics": {
                "minCardinality": 1,
                "ontology": ["http://sswapmeet.sswap.info/util/Alignment"],
                "fileTypes": [
                    "BAM-0.1.2",
                    "SAM-0.1.2"
                ]
            },
            "value": {
                "default": "",
                "visible": true,
                "validator": "",
                "required": false
            }
        },
        {
            "defaultValue": "",
            "details": {
                "visible": true,
                "description": "",
                "label": "RNA reads aligned with TopHat 4"
            },
            "id": "sam5_f1",
            "semantics": {
                "minCardinality": 1,
                "ontology": ["http://sswapmeet.sswap.info/util/Alignment"],
                "fileTypes": [
                    "BAM-0.1.2",
                    "SAM-0.1.2"
                ]
            },
            "value": {
                "default": "",
                "visible": true,
                "validator": "",
                "required": false
            }
        },
        {
            "defaultValue": "",
            "details": {
                "visible": true,
                "description": "",
                "label": "RNA reads aligned with TopHat 4"
            },
            "id": "sam9_f4",
            "semantics": {
                "minCardinality": 1,
                "ontology": ["http://sswapmeet.sswap.info/util/Alignment"],
                "fileTypes": [
                    "BAM-0.1.2",
                    "SAM-0.1.2"
                ]
            },
            "value": {
                "default": "",
                "visible": true,
                "validator": "",
                "required": false
            }
        },
        {
            "defaultValue": "",
            "details": {
                "visible": true,
                "description": "",
                "label": "RNA reads aligned with TopHat 3"
            },
            "id": "sam1_f3",
            "semantics": {
                "minCardinality": 1,
                "ontology": ["http://sswapmeet.sswap.info/util/Alignment"],
                "fileTypes": [
                    "BAM-0.1.2",
                    "SAM-0.1.2"
                ]
            },
            "value": {
                "default": "",
                "visible": true,
                "validator": "",
                "required": false
            }
        },
        {
            "defaultValue": "",
            "details": {
                "visible": true,
                "description": "",
                "label": "RNA reads aligned with TopHat 4"
            },
            "id": "sam9_f3",
            "semantics": {
                "minCardinality": 1,
                "ontology": ["http://sswapmeet.sswap.info/util/Alignment"],
                "fileTypes": [
                    "BAM-0.1.2",
                    "SAM-0.1.2"
                ]
            },
            "value": {
                "default": "",
                "visible": true,
                "validator": "",
                "required": false
            }
        },
        {
            "defaultValue": "",
            "details": {
                "visible": true,
                "description": "",
                "label": "RNA reads aligned with TopHat 4"
            },
            "id": "sam8_f3",
            "semantics": {
                "minCardinality": 1,
                "ontology": ["http://sswapmeet.sswap.info/util/Alignment"],
                "fileTypes": [
                    "BAM-0.1.2",
                    "SAM-0.1.2"
                ]
            },
            "value": {
                "default": "",
                "visible": true,
                "validator": "",
                "required": false
            }
        },
        {
            "defaultValue": "",
            "details": {
                "visible": true,
                "description": "",
                "label": "A transcripts.gtf file produced by cufflinks"
            },
            "id": "query3",
            "semantics": {
                "minCardinality": 1,
                "ontology": ["http://sswapmeet.sswap.info/util/Alignment"],
                "fileTypes": ["GTF-2.2"]
            },
            "value": {
                "default": "",
                "visible": true,
                "validator": "",
                "required": false
            }
        },
        {
            "defaultValue": "",
            "details": {
                "visible": true,
                "description": "",
                "label": "RNA reads aligned with TopHat 4"
            },
            "id": "sam10_f4",
            "semantics": {
                "minCardinality": 1,
                "ontology": ["http://sswapmeet.sswap.info/util/Alignment"],
                "fileTypes": [
                    "BAM-0.1.2",
                    "SAM-0.1.2"
                ]
            },
            "value": {
                "default": "",
                "visible": true,
                "validator": "",
                "required": false
            }
        },
        {
            "defaultValue": "",
            "details": {
                "visible": true,
                "description": "",
                "label": "RNA reads aligned with TopHat 4"
            },
            "id": "sam10_f2",
            "semantics": {
                "minCardinality": 1,
                "ontology": ["http://sswapmeet.sswap.info/util/Alignment"],
                "fileTypes": [
                    "BAM-0.1.2",
                    "SAM-0.1.2"
                ]
            },
            "value": {
                "default": "",
                "visible": true,
                "validator": "",
                "required": false
            }
        },
        {
            "defaultValue": "",
            "details": {
                "visible": true,
                "description": "",
                "label": "RNA reads aligned with TopHat 4"
            },
            "id": "sam6_f3",
            "semantics": {
                "minCardinality": 1,
                "ontology": ["http://sswapmeet.sswap.info/util/Alignment"],
                "fileTypes": [
                    "BAM-0.1.2",
                    "SAM-0.1.2"
                ]
            },
            "value": {
                "default": "",
                "visible": true,
                "validator": "",
                "required": false
            }
        },
        {
            "defaultValue": "",
            "details": {
                "visible": true,
                "description": "",
                "label": "RNA reads aligned with TopHat 4"
            },
            "id": "sam2_f2",
            "semantics": {
                "minCardinality": 1,
                "ontology": ["http://sswapmeet.sswap.info/util/Alignment"],
                "fileTypes": [
                    "BAM-0.1.2",
                    "SAM-0.1.2"
                ]
            },
            "value": {
                "default": "",
                "visible": true,
                "validator": "",
                "required": false
            }
        },
        {
            "defaultValue": "",
            "details": {
                "visible": true,
                "description": "",
                "label": "RNA reads aligned with TopHat 4"
            },
            "id": "sam7_f1",
            "semantics": {
                "minCardinality": 1,
                "ontology": ["http://sswapmeet.sswap.info/util/Alignment"],
                "fileTypes": [
                    "BAM-0.1.2",
                    "SAM-0.1.2"
                ]
            },
            "value": {
                "default": "",
                "visible": true,
                "validator": "",
                "required": false
            }
        },
        {
            "defaultValue": "",
            "details": {
                "visible": true,
                "description": "",
                "label": "A transcripts.gtf file produced by cufflinks"
            },
            "id": "query6",
            "semantics": {
                "minCardinality": 1,
                "ontology": ["http://sswapmeet.sswap.info/util/Alignment"],
                "fileTypes": ["GTF-2.2"]
            },
            "value": {
                "default": "",
                "visible": true,
                "validator": "",
                "required": false
            }
        },
        {
            "defaultValue": "",
            "details": {
                "visible": true,
                "description": "",
                "label": "RNA reads aligned with TopHat 4"
            },
            "id": "sam4_f3",
            "semantics": {
                "minCardinality": 1,
                "ontology": ["http://sswapmeet.sswap.info/util/Alignment"],
                "fileTypes": [
                    "BAM-0.1.2",
                    "SAM-0.1.2"
                ]
            },
            "value": {
                "default": "",
                "visible": true,
                "validator": "",
                "required": false
            }
        },
        {
            "defaultValue": "",
            "details": {
                "visible": true,
                "description": "Tells CuffDiff to ignore all reads that could have come from transcripts in this GTF file.",
                "label": "Mask annotation file"
            },
            "id": "mask_gtf",
            "semantics": {
                "minCardinality": 1,
                "ontology": ["http://sswapmeet.sswap.info/util/Annotation"],
                "fileTypes": [
                    "GTF-2.2",
                    "GFF-3.0"
                ]
            },
            "value": {
                "default": "",
                "visible": true,
                "validator": "",
                "required": false
            }
        },
        {
            "defaultValue": "",
            "details": {
                "visible": true,
                "description": "",
                "label": "A transcripts.gtf file produced by cufflinks"
            },
            "id": "query8",
            "semantics": {
                "minCardinality": 1,
                "ontology": ["http://sswapmeet.sswap.info/util/Alignment"],
                "fileTypes": ["GTF-2.2"]
            },
            "value": {
                "default": "",
                "visible": true,
                "validator": "",
                "required": false
            }
        },
        {
            "defaultValue": "",
            "details": {
                "visible": true,
                "description": "",
                "label": "RNA reads aligned with TopHat 4"
            },
            "id": "sam7_f2",
            "semantics": {
                "minCardinality": 1,
                "ontology": ["http://sswapmeet.sswap.info/util/Alignment"],
                "fileTypes": [
                    "BAM-0.1.2",
                    "SAM-0.1.2"
                ]
            },
            "value": {
                "default": "",
                "visible": true,
                "validator": "",
                "required": false
            }
        },
        {
            "defaultValue": "",
            "details": {
                "visible": true,
                "description": "",
                "label": "RNA reads aligned with TopHat 4"
            },
            "id": "sam5_f2",
            "semantics": {
                "minCardinality": 1,
                "ontology": ["http://sswapmeet.sswap.info/util/Alignment"],
                "fileTypes": [
                    "BAM-0.1.2",
                    "SAM-0.1.2"
                ]
            },
            "value": {
                "default": "",
                "visible": true,
                "validator": "",
                "required": false
            }
        },
        {
            "defaultValue": "",
            "details": {
                "visible": true,
                "description": "",
                "label": "A transcripts.gtf file produced by cufflinks"
            },
            "id": "query7",
            "semantics": {
                "minCardinality": 1,
                "ontology": ["http://sswapmeet.sswap.info/util/Alignment"],
                "fileTypes": ["GTF-2.2"]
            },
            "value": {
                "default": "",
                "visible": true,
                "validator": "",
                "required": false
            }
        },
        {
            "defaultValue": "",
            "details": {
                "visible": true,
                "description": "",
                "label": "A transcripts.gtf file produced by cufflinks"
            },
            "id": "query11",
            "semantics": {
                "minCardinality": 1,
                "ontology": ["http://sswapmeet.sswap.info/util/Alignment"],
                "fileTypes": ["GTF-2.2"]
            },
            "value": {
                "default": "",
                "visible": true,
                "validator": "",
                "required": false
            }
        },
        {
            "defaultValue": "",
            "details": {
                "visible": true,
                "description": "",
                "label": "RNA reads aligned with TopHat 3"
            },
            "id": "sam1_f2",
            "semantics": {
                "minCardinality": 1,
                "ontology": ["http://sswapmeet.sswap.info/util/Alignment"],
                "fileTypes": [
                    "BAM-0.1.2",
                    "SAM-0.1.2"
                ]
            },
            "value": {
                "default": "",
                "visible": true,
                "validator": "",
                "required": false
            }
        },
        {
            "defaultValue": "",
            "details": {
                "visible": true,
                "description": "",
                "label": "RNA reads aligned with TopHat 4"
            },
            "id": "sam10_f3",
            "semantics": {
                "minCardinality": 1,
                "ontology": ["http://sswapmeet.sswap.info/util/Alignment"],
                "fileTypes": [
                    "BAM-0.1.2",
                    "SAM-0.1.2"
                ]
            },
            "value": {
                "default": "",
                "visible": true,
                "validator": "",
                "required": false
            }
        },
        {
            "defaultValue": "",
            "details": {
                "visible": true,
                "description": "",
                "label": "RNA reads aligned with TopHat 4"
            },
            "id": "sam8_f1",
            "semantics": {
                "minCardinality": 1,
                "ontology": ["http://sswapmeet.sswap.info/util/Alignment"],
                "fileTypes": [
                    "BAM-0.1.2",
                    "SAM-0.1.2"
                ]
            },
            "value": {
                "default": "",
                "visible": true,
                "validator": "",
                "required": false
            }
        },
        {
            "defaultValue": "",
            "details": {
                "visible": true,
                "description": "",
                "label": "RNA reads aligned with TopHat 4"
            },
            "id": "sam5_f4",
            "semantics": {
                "minCardinality": 1,
                "ontology": ["http://sswapmeet.sswap.info/util/Alignment"],
                "fileTypes": [
                    "BAM-0.1.2",
                    "SAM-0.1.2"
                ]
            },
            "value": {
                "default": "",
                "visible": true,
                "validator": "",
                "required": false
            }
        },
        {
            "defaultValue": "",
            "details": {
                "visible": true,
                "description": "",
                "label": "RNA reads aligned with TopHat 4"
            },
            "id": "sam3_f1",
            "semantics": {
                "minCardinality": 1,
                "ontology": ["http://sswapmeet.sswap.info/util/Alignment"],
                "fileTypes": [
                    "BAM-0.1.2",
                    "SAM-0.1.2"
                ]
            },
            "value": {
                "default": "",
                "visible": true,
                "validator": "",
                "required": false
            }
        },
        {
            "defaultValue": "",
            "details": {
                "visible": true,
                "description": "",
                "label": "A transcripts.gtf file produced by cufflinks"
            },
            "id": "query4",
            "semantics": {
                "minCardinality": 1,
                "ontology": ["http://sswapmeet.sswap.info/util/Alignment"],
                "fileTypes": ["GTF-2.2"]
            },
            "value": {
                "default": "",
                "visible": true,
                "validator": "",
                "required": false
            }
        }
    ],
    "parallelism": "SERIAL",
    "executionType": "HPC",
    "available": true,
    "defaultProcessors": 1,
    "executionHost": "stampede.tacc.xsede.org",
    "public": true,
    "defaultMemory": 4,
    "id": "dnalc-cuffdiff-stampede-2.1.1u3",
    "checkpointable": false,
    "deploymentPath": "/ipcservices/applications/dnalc-cuffdiff-stampede-2.1.1u3.zip",
    "label": "Cuffdiff",
    "shortDescription": "Find significant changes in transcript expression, splicing, and promoter use.",
    "helpURI": "http://cufflinks.cbcb.umd.edu/",
    "defaultRequestedTime": "6:00:00",
    "version": "2.1.1",
    "templatePath": "cuffdiff.sh",
    "modules": [
        "purge",
        "load TACC",
        "load irods",
        "load samtools"
    ],
    "revision": 3,
    "tags": [
        "next-gen",
        "assembly",
        "rnaseq"
    ],
    "testPath": "library/test.sh",
    "ontolog": ["http://sswap.info/iPlant/FoundationalAPI"],
    "name": "dnalc-cuffdiff-stampede",
    "parameters": [
        {
            "defaultValue": "80",
            "details": {
                "description": "",
                "label": "Fragment length standard deviation (unpaired reads only)"
            },
            "id": "fragLenStdev",
            "semantics": {"ontology": ["xs:integer"]},
            "value": {
                "default": "80",
                "visible": true,
                "validator": "",
                "type": "number",
                "required": false
            }
        },
        {
            "defaultValue": "false",
            "details": {
                "description": "",
                "label": "Don't fit fragment counts for overdispersion"
            },
            "id": "poissonDispersion",
            "semantics": {"ontology": ["xs:boolean"]},
            "value": {
                "default": "false",
                "visible": true,
                "validator": "",
                "type": "bool",
                "required": false
            }
        },
        {
            "defaultValue": "200",
            "details": {
                "description": "",
                "label": "Average fragment length (unpaired reads only)"
            },
            "id": "fragLenMean",
            "semantics": {"ontology": ["xs:integer"]},
            "value": {
                "default": "200",
                "visible": true,
                "validator": "",
                "type": "number",
                "required": false
            }
        },
        {
            "defaultValue": "tophat",
            "details": {
                "description": "the name of the itinerant tophat job",
                "label": "job name"
            },
            "id": "jobName",
            "semantics": {"ontology": ["xs:string"]},
            "value": {
                "default": "tophat",
                "visible": true,
                "validator": "",
                "type": "string",
                "required": true
            }
        },
        {
            "defaultValue": "false",
            "details": {
                "description": "Tells CuffDiff to do an initial estimation procedure to more accurately weight reads mapping to multiple locations in the genome.",
                "label": "Perform multiply-matched read correction"
            },
            "id": "multiReadCorrect",
            "semantics": {"ontology": ["xs:boolean"]},
            "value": {
                "default": "false",
                "visible": true,
                "validator": "",
                "type": "bool",
                "required": false
            }
        },
        {
            "defaultValue": "false",
            "details": {
                "description": "CuffDiff normalizes by the upper quartile of the number of fragments mapping to individual loci instead of the total number of sequenced fragments.",
                "label": "Perform upper-quartile normalization"
            },
            "id": "upperQuartileNorm",
            "semantics": {"ontology": ["xs:boolean"]},
            "value": {
                "default": "false",
                "visible": true,
                "validator": "",
                "type": "bool",
                "required": false
            }
        },
        {
            "defaultValue": "0.05",
            "details": {
                "description": "",
                "label": "False discovery rate used in testing"
            },
            "id": "fdr",
            "semantics": {"ontology": ["xs:double"]},
            "value": {
                "default": "0.05",
                "visible": true,
                "validator": "",
                "type": "number",
                "required": true
            }
        },
        {
            "defaultValue": "false",
            "details": {
                "description": "CuffDiff counts only those fragments compatible with some reference transcript towards the number of mapped hits used in the FPKM denominator.",
                "label": "Use annotation-compatible hits to calculate FPKM"
            },
            "id": "compatibleHitsNorm",
            "semantics": {"ontology": ["xs:boolean"]},
            "value": {
                "default": "false",
                "visible": true,
                "validator": "",
                "type": "bool",
                "required": false
            }
        },
        {
            "defaultValue": "fr-unstranded",
            "details": {
                "description": "ff-firststrand|ff-secondstrand|ff-unstranded|fr-firststrand|fr-secondstrand|fr-unstranded|transfrags",
                "label": "Library type"
            },
            "id": "libraryType",
            "semantics": {"ontology": ["xs:string"]},
            "value": {
                "default": "fr-unstranded",
                "visible": true,
                "validator": "",
                "type": "string",
                "required": true
            }
        },
        {
            "defaultValue": "10",
            "details": {
                "description": "Minimum number of alignments in a locus for testing",
                "label": "Minimum alignment count"
            },
            "id": "minAlignmentCount",
            "semantics": {"ontology": ["xs:integer"]},
            "value": {
                "default": "10",
                "visible": true,
                "validator": "",
                "type": "number",
                "required": true
            }
        },
        {
            "defaultValue": "0.1",
            "details": {
                "description": "",
                "label": "Minimum isoform fraction"
            },
            "id": "min_isoform_Fraction",
            "semantics": {"ontology": ["xs:decimal"]},
            "value": {
                "default": "0.1",
                "visible": true,
                "validator": "",
                "type": "number",
                "required": false
            }
        },
        {
            "defaultValue": "true",
            "details": {
                "description": "CuffDiff counts all fragments, including those not compatible with any reference transcript, towards the number of mapped hits used in the FPKM denominator.",
                "label": "Use total hits to calculate FPKM"
            },
            "id": "totalHitsNorm",
            "semantics": {"ontology": ["xs:boolean"]},
            "value": {
                "default": "true",
                "visible": true,
                "validator": "",
                "type": "bool",
                "required": false
            }
        },
        {
            "defaultValue": "false",
            "details": {
                "description": "Tells CuffDiff to treat SAM files 1-n as a time series",
                "label": "Treat samples as an ordered time series"
            },
            "id": "treatAsTimeSeries",
            "semantics": {"ontology": ["xs:boolean"]},
            "value": {
                "default": "false",
                "visible": true,
                "validator": "",
                "type": "bool",
                "required": false
            }
        },
        {
            "defaultValue": "",
            "details": {
                "description": "",
                "label": "Comma-separated labels for SAM files 1-n"
            },
            "id": "labels",
            "semantics": {"ontology": ["xs:string"]},
            "value": {
                "default": "",
                "visible": true,
                "validator": "",
                "type": "string",
                "required": true
            }
        }
    ]
}