{
    "longDescription": "This version is a privately licensed for Volker Brendel",
    "outputs": [],
    "inputs": [
        {
            "defaultValue": "",
            "details": {
                "visible": true,
                "description": "Sequence file in multiple fasta format",
                "label": "Genomic Sequences:"
            },
            "id": "inputGenomic",
            "semantics": {
                "minCardinality": 1,
                "ontology": ["http://sswapmeet.sswap.info/sequence/FASTA"],
                "fileTypes": ["fasta-0"]
            },
            "value": {
                "default": "",
                "visible": true,
                "validator": "",
                "required": true
            }
        },
        {
            "defaultValue": "",
            "details": {
                "visible": true,
                "description": "Sequence file in multiple fasta format",
                "label": "Protein Sequences:"
            },
            "id": "inputProtein",
            "semantics": {
                "minCardinality": 1,
                "ontology": ["http://sswapmeet.sswap.info/sequence/FASTA"],
                "fileTypes": ["fasta-0"]
            },
            "value": {
                "default": "",
                "visible": true,
                "validator": "",
                "required": true
            }
        }
    ],
    "parallelism": "PARALLEL",
    "executionType": "HPC",
    "available": true,
    "defaultProcessors": null,
    "executionHost": "lonestar4.tacc.teragrid.org",
    "public": true,
    "defaultMemory": null,
    "id": "gth-lonestar-1.0u1",
    "checkpointable": false,
    "deploymentPath": "/ipcservices/applications/gth-lonestar-1.0u1.zip",
    "label": "gth-lonestar 1.0",
    "shortDescription": "Genome Threader (gt)",
    "helpURI": "https://pods.iplantcollaborative.org/wiki/display/DEapps/gth",
    "defaultRequestedTime": null,
    "version": "1.0",
    "templatePath": "wrapper-launcher.sh",
    "modules": [
        "purge",
        "load TACC",
        "load iRODS",
        "load launcher"
    ],
    "revision": 1,
    "tags": [
        "gene prediction",
        "nucleotides",
        "proteins"
    ],
    "testPath": "test/test.sh",
    "ontolog": ["http://sswapmeet.sswap.info/sequenceServices/MultipleSequenceAlignment"],
    "name": "gth-lonestar",
    "parameters": [
        {
            "defaultValue": "output.txt",
            "details": {
                "description": "text file",
                "label": "Result file"
            },
            "id": "outputName",
            "semantics": {"ontology": ["http://sswapmeet.sswap.info/sequence/Sequences"]},
            "value": {
                "default": "output.txt",
                "visible": true,
                "validator": "",
                "type": "string",
                "required": true
            }
        },
        {
            "defaultValue": "",
            "details": {
                "description": "Use GTH allowed species Names",
                "label": "Species Name"
            },
            "id": "speciesName",
            "semantics": {"ontology": ["xs:string"]},
            "value": {
                "default": "",
                "visible": true,
                "validator": "",
                "type": "string",
                "required": true
            }
        },
        {
            "defaultValue": "10",
            "details": {
                "description": "This splits the input genomic seq into smaller files of specified size in MB",
                "label": "Split Sequence File Size:"
            },
            "id": "splitSize",
            "semantics": {"ontology": ["xs:integer"]},
            "value": {
                "default": "10",
                "visible": true,
                "validator": "",
                "type": "number",
                "required": true
            }
        }
    ]
}