{
    "longDescription": "",
    "outputs": [],
    "inputs": [{
        "defaultValue": "",
        "details": {
            "visible": true,
            "description": "--fasta",
            "label": "Fasta file containing all sequences to annotate"
        },
        "id": "query",
        "semantics": {
            "minCardinality": 1,
            "ontology": ["http://sswapmeet.sswap.info/mime/application/X-fasta"],
            "fileTypes": ["fasta-0"]
        },
        "value": {
            "default": "",
            "visible": true,
            "validator": "",
            "required": true
        }
    }],
    "parallelism": "PARALLEL",
    "executionType": "HPC",
    "available": true,
    "defaultProcessors": 192,
    "executionHost": "lonestar4.tacc.teragrid.org",
    "public": true,
    "defaultMemory": 23,
    "id": "interproscan-5.44.0u1",
    "checkpointable": false,
    "deploymentPath": "/ipcservices/applications/interproscan-5.44.0u1.zip",
    "label": "Interproscan5-44.0",
    "shortDescription": "InterProScan is a tool that combines different protein signature recognition methods into one resource.",
    "helpURI": "http://www.ebi.ac.uk/Tools/pfa/iprscan/",
    "defaultRequestedTime": "24:00:00",
    "version": "5.44.0",
    "templatePath": "iprscan.bashx",
    "modules": [
        "purge",
        "load TACC",
        "swap intel gcc",
        "load iRODS",
        "load perl",
        "load launcher",
        "load java64/1.7.0"
    ],
    "revision": 1,
    "tags": [
        "annotation",
        "protein functional analysis",
        "embl-ebi"
    ],
    "testPath": "test.bashx",
    "ontolog": ["http://sswapmeet.sswap.info/agave/apps/Application"],
    "name": "interproscan",
    "parameters": [
        {
            "defaultValue": "true",
            "details": {
                "description": "--pathways",
                "label": "Switch on look up of corresponding pathways annotation"
            },
            "id": "pathways",
            "semantics": {"ontology": ["xs:boolean"]},
            "value": {
                "default": "true",
                "visible": true,
                "validator": "\\d++",
                "type": "bool",
                "required": false
            }
        },
        {
            "defaultValue": "true",
            "details": {
                "description": "--goterms",
                "label": "Switch on look up of corresponding Gene Ontology annotation"
            },
            "id": "goterms",
            "semantics": {"ontology": ["xs:boolean"]},
            "value": {
                "default": "true",
                "visible": true,
                "validator": "\\d++",
                "type": "bool",
                "required": false
            }
        }
    ]
}