{
    "longDescription": "MAFFT is a multiple sequence alignment program for unix-like operating systems.  It offers a range of multiple alignment methods, L-INS-i (accurate; for alignment of <?200 sequences), FFT-NS-2 (fast; for alignment of <?10,000 sequences), etc.",
    "outputs": [{
        "defaultValue": "mafft.fa",
        "details": {
            "description": "Aligned, FASTA sequences",
            "label": "Output filename"
        },
        "id": "stdout",
        "semantics": {
            "minCardinality": 1,
            "maxCardinality": 1,
            "ontology": [
                "http://sswapmeet.sswap.info/mime/text/X-multiFasta",
                "http://sswapmeet.sswap.info/agave/io/IPlantData"
            ],
            "fileTypes": [""]
        },
        "value": {
            "default": "mafft.fa",
            "validator": ""
        }
    }],
    "inputs": [{
        "defaultValue": "",
        "details": {
            "visible": true,
            "description": "(non-aligned) FASTA sequences to be aligned",
            "label": "Input path with filename (relative to /iplant/home)"
        },
        "id": "stdin",
        "semantics": {
            "minCardinality": 1,
            "ontology": ["http://sswapmeet.sswap.info/mime/text/X-multiFasta"],
            "fileTypes": ["FASTA-0"]
        },
        "value": {
            "default": "",
            "visible": true,
            "validator": "",
            "required": false
        }
    }],
    "parallelism": "SERIAL",
    "executionType": "HPC",
    "available": true,
    "defaultProcessors": 1,
    "executionHost": "lonestar4.tacc.teragrid.org",
    "public": true,
    "defaultMemory": 4,
    "id": "mafftDispatcher-1.0.13100u1",
    "checkpointable": false,
    "deploymentPath": "/ipcservices/applications/mafftDispatcher-1.0.13100u1.zip",
    "label": "MAFFT",
    "shortDescription": "Multiple alignment program for amino acid or nucleotide sequences",
    "helpURI": "http://mafft.cbrc.jp/alignment/software",
    "defaultRequestedTime": "4:00:00",
    "version": "1.0.13100",
    "templatePath": "wrapper.sh",
    "modules": [
        "purge",
        "load TACC",
        "load irods"
    ],
    "revision": 1,
    "tags": [
        "msa",
        "multiple sequence alignment"
    ],
    "testPath": "test/test.sh",
    "ontolog": [
        "http://sswapmeet.sswap.info/agave/apps/Application",
        "http://sswapmeet.sswap.info/iplant/apps/Application"
    ],
    "name": "mafftDispatcher",
    "parameters": [
        {
            "defaultValue": "",
            "details": {
                "description": "Command line arguments and their arguments; see http://mafft.cbrc.jp/alignment/software/manual/manual.html#lbAI",
                "label": "program arguments and options"
            },
            "id": "arguments",
            "semantics": {"ontology": ["http://sswapmeet.sswap.info/iplant/apps/arguments"]},
            "value": {
                "default": "",
                "visible": true,
                "validator": "",
                "type": "string",
                "required": false
            }
        },
        {
            "defaultValue": "",
            "details": {
                "description": "Application version. Leave empty for system default",
                "label": "version"
            },
            "id": "version",
            "semantics": {"ontology": ["http://sswapmeet.sswap.info/iplant/mafft/version"]},
            "value": {
                "default": "",
                "visible": true,
                "validator": "",
                "type": "string",
                "required": false
            }
        }
    ]
}