{
    "longDescription": "Intersecting genotype data with phenotype data",
    "outputs": [],
    "inputs": [
        {
            "defaultValue": "",
            "details": {
                "visible": true,
                "description": "marker file",
                "label": "Input Data"
            },
            "id": "sid",
            "semantics": {
                "minCardinality": 1,
                "ontology": ["xs:string"],
                "fileTypes": [""]
            },
            "value": {
                "default": "",
                "visible": true,
                "validator": "",
                "required": true
            }
        },
        {
            "defaultValue": "",
            "details": {
                "visible": true,
                "description": "trait file",
                "label": "Input Data"
            },
            "id": "trait",
            "semantics": {
                "minCardinality": 1,
                "ontology": ["xs:string"],
                "fileTypes": [""]
            },
            "value": {
                "default": "",
                "visible": true,
                "validator": "",
                "required": true
            }
        }
    ],
    "parallelism": "SERIAL",
    "executionType": "HPC",
    "available": true,
    "defaultProcessors": 1,
    "executionHost": "lonestar4.tacc.teragrid.org",
    "public": true,
    "defaultMemory": 2,
    "id": "MergeG2P-0.0.1u1",
    "checkpointable": false,
    "deploymentPath": "/ipcservices/applications/MergeG2P-0.0.1u1.zip",
    "label": "g2p",
    "shortDescription": "merge",
    "helpURI": "http://www.iplantc.org",
    "defaultRequestedTime": "1:00:00",
    "version": "0.0.1",
    "templatePath": "mergeg2p_wrapper.sh",
    "modules": [
        "purge",
        "load TACC",
        "load irods"
    ],
    "revision": 1,
    "tags": [
        "GWAS",
        "intersection join"
    ],
    "testPath": "nmergeg2p_test_wrapper.sh",
    "ontolog": ["http://sswapmeet.sswap.info/agave/apps/Application"],
    "name": "MergeG2P",
    "parameters": [
        {
            "defaultValue": "0",
            "details": {
                "description": "Number of extra columns",
                "label": "Number of additional columns before marker data start"
            },
            "id": "extracols",
            "semantics": {"ontology": ["xs:int"]},
            "value": {
                "default": "0",
                "visible": true,
                "validator": "",
                "type": "number",
                "required": true
            }
        },
        {
            "defaultValue": "0",
            "details": {
                "description": "Number of header rows in trait file",
                "label": "Number of header lines in trait file"
            },
            "id": "header",
            "semantics": {"ontology": ["xs:int"]},
            "value": {
                "default": "0",
                "visible": true,
                "validator": "",
                "type": "number",
                "required": true
            }
        },
        {
            "defaultValue": "marker.txt",
            "details": {
                "description": null,
                "label": "Merged marker filename"
            },
            "id": "marker_output",
            "semantics": {"ontology": ["xs:string"]},
            "value": {
                "default": "marker.txt",
                "visible": true,
                "validator": "",
                "type": "string",
                "required": true
            }
        },
        {
            "defaultValue": "trait.txt",
            "details": {
                "description": "Numerical file",
                "label": "Merged trait filename"
            },
            "id": "trait_output",
            "semantics": {"ontology": ["xs:string"]},
            "value": {
                "default": "trait.txt",
                "visible": true,
                "validator": "",
                "type": "string",
                "required": true
            }
        }
    ]
}