{
    "longDescription": "Multi-locus Mixed-Model Association",
    "outputs": [],
    "inputs": [
        {
            "defaultValue": "",
            "details": {
                "visible": true,
                "description": "marker file",
                "label": "Input Data"
            },
            "id": "marker",
            "semantics": {
                "minCardinality": 1,
                "ontology": ["xs:string"],
                "fileTypes": [""]
            },
            "value": {
                "default": "",
                "visible": true,
                "validator": "",
                "required": true
            }
        },
        {
            "defaultValue": "",
            "details": {
                "visible": true,
                "description": "trait file",
                "label": "Input Data"
            },
            "id": "pheno",
            "semantics": {
                "minCardinality": 1,
                "ontology": ["xs:string"],
                "fileTypes": [""]
            },
            "value": {
                "default": "",
                "visible": true,
                "validator": "",
                "required": true
            }
        }
    ],
    "parallelism": "SERIAL",
    "executionType": "HPC",
    "available": true,
    "defaultProcessors": 1,
    "executionHost": "lonestar4.tacc.teragrid.org",
    "public": true,
    "defaultMemory": 4,
    "id": "MLMM-0.0.1u1",
    "checkpointable": false,
    "deploymentPath": "/ipcservices/applications/MLMM-0.0.1u1.zip",
    "label": "MLMM",
    "shortDescription": "mlmm",
    "helpURI": "https://cynin.gmi.oeaw.ac.at/home/resources/mlmm",
    "defaultRequestedTime": "4:00:00",
    "version": "0.0.1",
    "templatePath": "mlmm_wrapper.sh",
    "modules": [
        "purge",
        "load TACC",
        "load irods",
        "load python"
    ],
    "revision": 1,
    "tags": [
        "GWAS",
        "MLMM"
    ],
    "testPath": "mlmm_test_wrapper.sh",
    "ontolog": ["http://sswapmeet.sswap.info/sequenceServices/SequenceServices"],
    "name": "MLMM",
    "parameters": [
        {
            "defaultValue": "10",
            "details": {
                "description": "Maximum steps for stepwise regression",
                "label": "Maximum steps for stepwise regression"
            },
            "id": "max_steps",
            "semantics": {"ontology": ["xs:int"]},
            "value": {
                "default": "10",
                "visible": true,
                "validator": "",
                "type": "number",
                "required": true
            }
        },
        {
            "defaultValue": "5",
            "details": {
                "description": "Phenotype id for association",
                "label": "Phenotype id"
            },
            "id": "trait_id",
            "semantics": {"ontology": ["xs:int"]},
            "value": {
                "default": "5",
                "visible": true,
                "validator": "",
                "type": "number",
                "required": true
            }
        },
        {
            "defaultValue": "",
            "details": {
                "description": "Numerical file",
                "label": "Output filename"
            },
            "id": "export",
            "semantics": {"ontology": ["xs:string"]},
            "value": {
                "default": "",
                "visible": true,
                "validator": "",
                "type": "string",
                "required": true
            }
        },
        {
            "defaultValue": "IBS",
            "details": {
                "description": "Method to estimate kinship matrix",
                "label": "Kinship method"
            },
            "id": "kin_method",
            "semantics": {"ontology": ["xs:string"]},
            "value": {
                "default": "IBS",
                "visible": true,
                "validator": "IBD|IBS",
                "type": "string",
                "required": true
            }
        }
    ]
}