{
    "longDescription": "MUSCLE is a program for creating multiple alignments of amino acid or nucleotide sequences.",
    "outputs": [{
        "defaultValue": "muscle.fa",
        "details": {
            "description": "Aligned, FASTA sequences",
            "label": "Output filename"
        },
        "id": "stdout",
        "semantics": {
            "minCardinality": 1,
            "maxCardinality": 1,
            "ontology": [
                "http://sswapmeet.sswap.info/mime/text/X-multiFasta",
                "http://sswapmeet.sswap.info/agave/io/IPlantData"
            ],
            "fileTypes": [""]
        },
        "value": {
            "default": "muscle.fa",
            "validator": ""
        }
    }],
    "inputs": [{
        "defaultValue": "",
        "details": {
            "visible": true,
            "description": "(non-aligned) FASTA sequences to be aligned",
            "label": "Input path with filename (relative to /iplant/home)"
        },
        "id": "stdin",
        "semantics": {
            "minCardinality": 1,
            "ontology": ["http://sswapmeet.sswap.info/mime/text/X-multiFasta"],
            "fileTypes": ["FASTA-0"]
        },
        "value": {
            "default": "",
            "visible": true,
            "validator": "",
            "required": false
        }
    }],
    "parallelism": "SERIAL",
    "executionType": "HPC",
    "available": true,
    "defaultProcessors": 1,
    "executionHost": "lonestar4.tacc.teragrid.org",
    "public": true,
    "defaultMemory": 4,
    "id": "muscle-lonestar-3.8.31u2",
    "checkpointable": false,
    "deploymentPath": "/ipcservices/applications/muscle-lonestar-3.8.31u2.zip",
    "label": "Muscle",
    "shortDescription": "Multiple sequence alignment by log-expectation",
    "helpURI": "http://www.drive5.com/muscle",
    "defaultRequestedTime": "4:00:00",
    "version": "3.8.31",
    "templatePath": "wrapper.sh",
    "modules": [
        "purge",
        "load TACC",
        "load irods",
        "load muscle/3.8.31"
    ],
    "revision": 2,
    "tags": [
        "msa",
        "multiple sequence alignment"
    ],
    "testPath": "test/test.sh",
    "ontolog": ["http://sswapmeet.sswap.info/agave/apps/Application"],
    "name": "muscle-lonestar",
    "parameters": [{
        "defaultValue": "",
        "details": {
            "description": "Command line arguments and their arguments; see http://www.drive5.com/muscle/muscle_userguide3.8.html",
            "label": "program arguments and options"
        },
        "id": "arguments",
        "semantics": {"ontology": ["http://sswapmeet.sswap.info/iplant/apps/arguments"]},
        "value": {
            "default": "",
            "visible": true,
            "validator": "",
            "type": "string",
            "required": false
        }
    }]
}