{
    "longDescription": "SNP imputation",
    "outputs": [],
    "inputs": [{
        "defaultValue": "",
        "details": {
            "visible": true,
            "description": "marker file",
            "label": "Input Data"
        },
        "id": "i",
        "semantics": {
            "minCardinality": 1,
            "ontology": ["xs:string"],
            "fileTypes": [""]
        },
        "value": {
            "default": "",
            "visible": true,
            "validator": "",
            "required": true
        }
    }],
    "parallelism": "PARALLEL",
    "executionType": "HPC",
    "available": true,
    "defaultProcessors": null,
    "executionHost": "lonestar4.tacc.teragrid.org",
    "public": true,
    "defaultMemory": null,
    "id": "NPUTE-0.0.1u1",
    "checkpointable": false,
    "deploymentPath": "/ipcservices/applications/NPUTE-0.0.1u1.zip",
    "label": "impute",
    "shortDescription": "imputing",
    "helpURI": "http://compgen.unc.edu/NPUTE_README.html",
    "defaultRequestedTime": null,
    "version": "0.0.1",
    "templatePath": "npute_wrapper.sh",
    "modules": [
        "purge",
        "load TACC",
        "load irods",
        "load python",
        "load launcher"
    ],
    "revision": 1,
    "tags": [
        "GWAS",
        "imputation"
    ],
    "testPath": "npute_test_wrapper.sh",
    "ontolog": ["http://sswapmeet.sswap.info/agave/apps/Application"],
    "name": "NPUTE",
    "parameters": [
        {
            "defaultValue": "1",
            "details": {
                "description": "Ploidy of data",
                "label": "Ploidy of data"
            },
            "id": "ploidy",
            "semantics": {"ontology": ["xs:int"]},
            "value": {
                "default": "1",
                "visible": true,
                "validator": "",
                "type": "number",
                "required": true
            }
        },
        {
            "defaultValue": "N",
            "details": {
                "description": "Value given to missing marker data",
                "label": "Value given to missing marker data"
            },
            "id": "missing",
            "semantics": {"ontology": ["xs:string"]},
            "value": {
                "default": "N",
                "visible": true,
                "validator": "",
                "type": "string",
                "required": true
            }
        },
        {
            "defaultValue": "0",
            "details": {
                "description": "Number of extra columns",
                "label": "Number of extra columns before marker data start"
            },
            "id": "extracols",
            "semantics": {"ontology": ["xs:int"]},
            "value": {
                "default": "0",
                "visible": true,
                "validator": "",
                "type": "number",
                "required": true
            }
        },
        {
            "defaultValue": "",
            "details": {
                "description": "Numerical file",
                "label": "Output filename"
            },
            "id": "o",
            "semantics": {"ontology": ["xs:string"]},
            "value": {
                "default": "",
                "visible": true,
                "validator": "",
                "type": "string",
                "required": true
            }
        },
        {
            "defaultValue": "10",
            "details": {
                "description": "End window size for screening",
                "label": "End window size"
            },
            "id": "endWindow",
            "semantics": {"ontology": ["xs:int"]},
            "value": {
                "default": "10",
                "visible": true,
                "validator": "",
                "type": "number",
                "required": false
            }
        },
        {
            "defaultValue": "1",
            "details": {
                "description": "Or actual window size for imputation",
                "label": "(Start) Window size for imputing (testing)"
            },
            "id": "startWindow",
            "semantics": {"ontology": ["xs:int"]},
            "value": {
                "default": "1",
                "visible": true,
                "validator": "",
                "type": "number",
                "required": true
            }
        },
        {
            "defaultValue": "1",
            "details": {
                "description": "Rows of header lines",
                "label": "Number of header lines"
            },
            "id": "headerrows",
            "semantics": {"ontology": ["xs:int"]},
            "value": {
                "default": "1",
                "visible": true,
                "validator": "",
                "type": "number",
                "required": true
            }
        },
        {
            "defaultValue": "Testing",
            "details": {
                "description": null,
                "label": "Running mode"
            },
            "id": "mode",
            "semantics": {"ontology": ["xs:string"]},
            "value": {
                "default": "Testing",
                "visible": true,
                "validator": "Testing|Imputing",
                "type": "string",
                "required": true
            }
        },
        {
            "defaultValue": "1",
            "details": {
                "description": "Intervals between window sizes",
                "label": "Screening step for optimal window size"
            },
            "id": "stepWindow",
            "semantics": {"ontology": ["xs:int"]},
            "value": {
                "default": "1",
                "visible": true,
                "validator": "",
                "type": "number",
                "required": false
            }
        }
    ]
}