{
    "longDescription": "Genome assembler for Illumina sequencing reads",
    "outputs": [],
    "inputs": [
        {
            "defaultValue": "",
            "details": {
                "visible": true,
                "description": "Sequence file in fastq or fasta format",
                "label": "Sequences:"
            },
            "id": "reads2_2",
            "semantics": {
                "minCardinality": 1,
                "ontology": ["http://sswapmeet.sswap.info/sequence/FASTA"],
                "fileTypes": ["fasta-0"]
            },
            "value": {
                "default": "",
                "visible": true,
                "validator": "",
                "required": false
            }
        },
        {
            "defaultValue": "",
            "details": {
                "visible": true,
                "description": "Sequence file in fastq or fasta format",
                "label": "Sequences:"
            },
            "id": "reads4_2",
            "semantics": {
                "minCardinality": 1,
                "ontology": ["http://sswapmeet.sswap.info/sequence/FASTA"],
                "fileTypes": ["fasta-0"]
            },
            "value": {
                "default": "",
                "visible": true,
                "validator": "",
                "required": false
            }
        },
        {
            "defaultValue": "",
            "details": {
                "visible": true,
                "description": "Sequence file in fastq or fasta format",
                "label": "Sequences:"
            },
            "id": "reads5_2",
            "semantics": {
                "minCardinality": 1,
                "ontology": ["http://sswapmeet.sswap.info/sequence/FASTA"],
                "fileTypes": ["fasta-0"]
            },
            "value": {
                "default": "",
                "visible": true,
                "validator": "",
                "required": false
            }
        },
        {
            "defaultValue": "",
            "details": {
                "visible": true,
                "description": "Sequence file in fastq or fasta format",
                "label": "Sequences:"
            },
            "id": "reads2_1",
            "semantics": {
                "minCardinality": 1,
                "ontology": ["http://sswapmeet.sswap.info/sequence/FASTA"],
                "fileTypes": ["fasta-0"]
            },
            "value": {
                "default": "",
                "visible": true,
                "validator": "",
                "required": false
            }
        },
        {
            "defaultValue": "",
            "details": {
                "visible": true,
                "description": "Sequence file in fastq or fasta format",
                "label": "Sequences:"
            },
            "id": "reads3_2",
            "semantics": {
                "minCardinality": 1,
                "ontology": ["http://sswapmeet.sswap.info/sequence/FASTA"],
                "fileTypes": ["fasta-0"]
            },
            "value": {
                "default": "",
                "visible": true,
                "validator": "",
                "required": false
            }
        },
        {
            "defaultValue": "",
            "details": {
                "visible": true,
                "description": "Sequence file in fastq or fasta format",
                "label": "Sequences:"
            },
            "id": "reads4_1",
            "semantics": {
                "minCardinality": 1,
                "ontology": ["http://sswapmeet.sswap.info/sequence/FASTA"],
                "fileTypes": ["fasta-0"]
            },
            "value": {
                "default": "",
                "visible": true,
                "validator": "",
                "required": false
            }
        },
        {
            "defaultValue": "",
            "details": {
                "visible": true,
                "description": "Sequence file in fastq or fasta format",
                "label": "Sequences:"
            },
            "id": "reads3_1",
            "semantics": {
                "minCardinality": 1,
                "ontology": ["http://sswapmeet.sswap.info/sequence/FASTA"],
                "fileTypes": ["fasta-0"]
            },
            "value": {
                "default": "",
                "visible": true,
                "validator": "",
                "required": false
            }
        },
        {
            "defaultValue": "",
            "details": {
                "visible": true,
                "description": "Sequence file in fastq or fasta format",
                "label": "Sequences:"
            },
            "id": "reads5_1",
            "semantics": {
                "minCardinality": 1,
                "ontology": ["http://sswapmeet.sswap.info/sequence/FASTA"],
                "fileTypes": ["fasta-0"]
            },
            "value": {
                "default": "",
                "visible": true,
                "validator": "",
                "required": false
            }
        },
        {
            "defaultValue": "",
            "details": {
                "visible": true,
                "description": "Sequence file in fastq or fasta format",
                "label": "Sequences:"
            },
            "id": "reads1_1",
            "semantics": {
                "minCardinality": 1,
                "ontology": ["http://sswapmeet.sswap.info/sequence/FASTA"],
                "fileTypes": ["fasta-0"]
            },
            "value": {
                "default": "",
                "visible": true,
                "validator": "",
                "required": false
            }
        },
        {
            "defaultValue": "",
            "details": {
                "visible": true,
                "description": "Sequence file in fastq or fasta format",
                "label": "Sequences:"
            },
            "id": "reads1_2",
            "semantics": {
                "minCardinality": 1,
                "ontology": ["http://sswapmeet.sswap.info/sequence/FASTA"],
                "fileTypes": ["fasta-0"]
            },
            "value": {
                "default": "",
                "visible": true,
                "validator": "",
                "required": false
            }
        }
    ],
    "parallelism": "SERIAL",
    "executionType": "HPC",
    "available": true,
    "defaultProcessors": 1,
    "executionHost": "lonestar4.tacc.teragrid.org",
    "public": true,
    "defaultMemory": 999,
    "id": "soapdenovo-2.04u1",
    "checkpointable": true,
    "deploymentPath": "/ipcservices/applications/soapdenovo-2.04u1.zip",
    "label": "Soapdenovo 2.04",
    "shortDescription": "Soapdenovo, genome assembler",
    "helpURI": "https://pods.iplantcollaborative.org/wiki/display/DEapps/soapdenovo",
    "defaultRequestedTime": "24:00:00",
    "version": "2.04",
    "templatePath": "Soapdenovo_wrapper.sh",
    "modules": [
        "purge",
        "load TACC",
        "load irods"
    ],
    "revision": 1,
    "tags": [
        "assembler",
        "NGS",
        "Illumina",
        "BGI"
    ],
    "testPath": "test/Soapdenovotest.sh",
    "ontolog": ["http://sswapmeet.sswap.info/sequenceServices/SequenceServices"],
    "name": "soapdenovo",
    "parameters": [
        {
            "defaultValue": "",
            "details": {
                "description": null,
                "label": "read orientations, library 3"
            },
            "id": "reverse_seq3",
            "semantics": {"ontology": ["xs:string"]},
            "value": {
                "default": "",
                "visible": true,
                "validator": "",
                "type": "string",
                "required": false
            }
        },
        {
            "defaultValue": "",
            "details": {
                "description": null,
                "label": "assembly steps, library 5"
            },
            "id": "asm_flags5",
            "semantics": {"ontology": ["xs:string"]},
            "value": {
                "default": "",
                "visible": true,
                "validator": "",
                "type": "string",
                "required": false
            }
        },
        {
            "defaultValue": "",
            "details": {
                "description": null,
                "label": "sequence file format, library 4"
            },
            "id": "format4",
            "semantics": {"ontology": ["xs:string"]},
            "value": {
                "default": "",
                "visible": true,
                "validator": "",
                "type": "string",
                "required": false
            }
        },
        {
            "defaultValue": "",
            "details": {
                "description": null,
                "label": "average insert size, library 2"
            },
            "id": "avg_ins2",
            "semantics": {"ontology": ["xs:string"]},
            "value": {
                "default": "",
                "visible": true,
                "validator": "",
                "type": "string",
                "required": false
            }
        },
        {
            "defaultValue": "",
            "details": {
                "description": null,
                "label": "average insert size, library 5"
            },
            "id": "avg_ins5",
            "semantics": {"ontology": ["xs:string"]},
            "value": {
                "default": "",
                "visible": true,
                "validator": "",
                "type": "string",
                "required": false
            }
        },
        {
            "defaultValue": "",
            "details": {
                "description": "contig merging strength",
                "label": "merge level"
            },
            "id": "mergeLevel",
            "semantics": {"ontology": ["xs:string"]},
            "value": {
                "default": "",
                "visible": true,
                "validator": "",
                "type": "string",
                "required": false
            }
        },
        {
            "defaultValue": "",
            "details": {
                "description": null,
                "label": "assembly steps, library 4"
            },
            "id": "asm_flags4",
            "semantics": {"ontology": ["xs:string"]},
            "value": {
                "default": "",
                "visible": true,
                "validator": "",
                "type": "string",
                "required": false
            }
        },
        {
            "defaultValue": "",
            "details": {
                "description": null,
                "label": "order for scaffolding, library 1"
            },
            "id": "rank1",
            "semantics": {"ontology": ["xs:string"]},
            "value": {
                "default": "",
                "visible": true,
                "validator": "",
                "type": "string",
                "required": false
            }
        },
        {
            "defaultValue": "",
            "details": {
                "description": null,
                "label": "maximum read length"
            },
            "id": "max_rd_len",
            "semantics": {"ontology": ["xs:string"]},
            "value": {
                "default": "",
                "visible": true,
                "validator": "",
                "type": "string",
                "required": true
            }
        },
        {
            "defaultValue": "",
            "details": {
                "description": null,
                "label": "assembly steps, library 3"
            },
            "id": "asm_flags3",
            "semantics": {"ontology": ["xs:string"]},
            "value": {
                "default": "",
                "visible": true,
                "validator": "",
                "type": "string",
                "required": false
            }
        },
        {
            "defaultValue": "",
            "details": {
                "description": null,
                "label": "order for scaffolding, library 3"
            },
            "id": "rank3",
            "semantics": {"ontology": ["xs:string"]},
            "value": {
                "default": "",
                "visible": true,
                "validator": "",
                "type": "string",
                "required": false
            }
        },
        {
            "defaultValue": "",
            "details": {
                "description": null,
                "label": "read orientations, library 1"
            },
            "id": "reverse_seq1",
            "semantics": {"ontology": ["xs:string"]},
            "value": {
                "default": "",
                "visible": true,
                "validator": "",
                "type": "string",
                "required": false
            }
        },
        {
            "defaultValue": "",
            "details": {
                "description": null,
                "label": "order for scaffolding, library 2"
            },
            "id": "rank2",
            "semantics": {"ontology": ["xs:string"]},
            "value": {
                "default": "",
                "visible": true,
                "validator": "",
                "type": "string",
                "required": false
            }
        },
        {
            "defaultValue": "",
            "details": {
                "description": "minimum contig length for scaffolding",
                "label": "minimum contig length"
            },
            "id": "minLen",
            "semantics": {"ontology": ["xs:string"]},
            "value": {
                "default": "",
                "visible": true,
                "validator": "",
                "type": "string",
                "required": false
            }
        },
        {
            "defaultValue": "",
            "details": {
                "description": "allowed difference between estimated and filled gap size",
                "label": "gap length difference"
            },
            "id": "gapLenDiff",
            "semantics": {"ontology": ["xs:string"]},
            "value": {
                "default": "",
                "visible": true,
                "validator": "",
                "type": "string",
                "required": false
            }
        },
        {
            "defaultValue": "",
            "details": {
                "description": null,
                "label": "average insert size, library 4"
            },
            "id": "avg_ins4",
            "semantics": {"ontology": ["xs:string"]},
            "value": {
                "default": "",
                "visible": true,
                "validator": "",
                "type": "string",
                "required": false
            }
        },
        {
            "defaultValue": "",
            "details": {
                "description": null,
                "label": "read orientations, library 2"
            },
            "id": "reverse_seq2",
            "semantics": {"ontology": ["xs:string"]},
            "value": {
                "default": "",
                "visible": true,
                "validator": "",
                "type": "string",
                "required": false
            }
        },
        {
            "defaultValue": "",
            "details": {
                "description": null,
                "label": "order for scaffolding, library 5"
            },
            "id": "rank5",
            "semantics": {"ontology": ["xs:string"]},
            "value": {
                "default": "",
                "visible": true,
                "validator": "",
                "type": "string",
                "required": false
            }
        },
        {
            "defaultValue": "",
            "details": {
                "description": "unmask high coverage contigs before scaffolding",
                "label": "unmask"
            },
            "id": "unmask",
            "semantics": {"ontology": ["xs:string"]},
            "value": {
                "default": "",
                "visible": true,
                "validator": "",
                "type": "string",
                "required": false
            }
        },
        {
            "defaultValue": "",
            "details": {
                "description": null,
                "label": "sequence file format, library 5"
            },
            "id": "format5",
            "semantics": {"ontology": ["xs:string"]},
            "value": {
                "default": "",
                "visible": true,
                "validator": "",
                "type": "string",
                "required": false
            }
        },
        {
            "defaultValue": "",
            "details": {
                "description": null,
                "label": "order for scaffolding, library 4"
            },
            "id": "rank4",
            "semantics": {"ontology": ["xs:string"]},
            "value": {
                "default": "",
                "visible": true,
                "validator": "",
                "type": "string",
                "required": false
            }
        },
        {
            "defaultValue": "12",
            "details": {
                "description": "Specify the number of cores to be used",
                "label": "number of threads"
            },
            "id": "n_cpu",
            "semantics": {"ontology": ["xs:string"]},
            "value": {
                "default": "12",
                "visible": true,
                "validator": "",
                "type": "string",
                "required": true
            }
        },
        {
            "defaultValue": "",
            "details": {
                "description": "delete kmers with frequency 1",
                "label": "kmer selection"
            },
            "id": "dkmers",
            "semantics": {"ontology": ["xs:string"]},
            "value": {
                "default": "",
                "visible": true,
                "validator": "",
                "type": "string",
                "required": false
            }
        },
        {
            "defaultValue": "",
            "details": {
                "description": "solve repeats by reads",
                "label": "repeats"
            },
            "id": "repeats",
            "semantics": {"ontology": ["xs:string"]},
            "value": {
                "default": "",
                "visible": true,
                "validator": "",
                "type": "string",
                "required": false
            }
        },
        {
            "defaultValue": "",
            "details": {
                "description": "up to 63mers or up to 127mers",
                "label": "kmer size range"
            },
            "id": "kRange",
            "semantics": {"ontology": ["xs:string"]},
            "value": {
                "default": "",
                "visible": true,
                "validator": "",
                "type": "string",
                "required": false
            }
        },
        {
            "defaultValue": "",
            "details": {
                "description": null,
                "label": "assembly steps, library 2"
            },
            "id": "asm_flags2",
            "semantics": {"ontology": ["xs:string"]},
            "value": {
                "default": "",
                "visible": true,
                "validator": "",
                "type": "string",
                "required": false
            }
        },
        {
            "defaultValue": "",
            "details": {
                "description": null,
                "label": "read orientations, library 4"
            },
            "id": "reverse_seq4",
            "semantics": {"ontology": ["xs:string"]},
            "value": {
                "default": "",
                "visible": true,
                "validator": "",
                "type": "string",
                "required": false
            }
        },
        {
            "defaultValue": "",
            "details": {
                "description": null,
                "label": "average insert size, library 3"
            },
            "id": "avg_ins3",
            "semantics": {"ontology": ["xs:string"]},
            "value": {
                "default": "",
                "visible": true,
                "validator": "",
                "type": "string",
                "required": false
            }
        },
        {
            "defaultValue": "27",
            "details": {
                "description": "kmer size",
                "label": "kmer size"
            },
            "id": "kmer",
            "semantics": {"ontology": ["xs:string"]},
            "value": {
                "default": "27",
                "visible": true,
                "validator": "",
                "type": "string",
                "required": true
            }
        },
        {
            "defaultValue": "",
            "details": {
                "description": "prefix for output files",
                "label": "output file prefix"
            },
            "id": "Output",
            "semantics": {"ontology": ["xs:string"]},
            "value": {
                "default": "",
                "visible": true,
                "validator": "",
                "type": "string",
                "required": true
            }
        },
        {
            "defaultValue": "",
            "details": {
                "description": null,
                "label": "sequence file format, library 1"
            },
            "id": "format1",
            "semantics": {"ontology": ["xs:string"]},
            "value": {
                "default": "",
                "visible": true,
                "validator": "",
                "type": "string",
                "required": false
            }
        },
        {
            "defaultValue": "",
            "details": {
                "description": null,
                "label": "average insert size, library 1"
            },
            "id": "avg_ins1",
            "semantics": {"ontology": ["xs:string"]},
            "value": {
                "default": "",
                "visible": true,
                "validator": "",
                "type": "string",
                "required": false
            }
        },
        {
            "defaultValue": "",
            "details": {
                "description": null,
                "label": "read orientations, library 5"
            },
            "id": "reverse_seq5",
            "semantics": {"ontology": ["xs:string"]},
            "value": {
                "default": "",
                "visible": true,
                "validator": "",
                "type": "string",
                "required": false
            }
        },
        {
            "defaultValue": "",
            "details": {
                "description": null,
                "label": "sequence file format, library 3"
            },
            "id": "format3",
            "semantics": {"ontology": ["xs:string"]},
            "value": {
                "default": "",
                "visible": true,
                "validator": "",
                "type": "string",
                "required": false
            }
        },
        {
            "defaultValue": "",
            "details": {
                "description": null,
                "label": "sequence file format, library 2"
            },
            "id": "format2",
            "semantics": {"ontology": ["xs:string"]},
            "value": {
                "default": "",
                "visible": true,
                "validator": "",
                "type": "string",
                "required": false
            }
        },
        {
            "defaultValue": "",
            "details": {
                "description": "delete edges with coverage of one",
                "label": "edge selection"
            },
            "id": "dEdges",
            "semantics": {"ontology": ["xs:string"]},
            "value": {
                "default": "",
                "visible": true,
                "validator": "",
                "type": "string",
                "required": false
            }
        },
        {
            "defaultValue": "",
            "details": {
                "description": null,
                "label": "assembly steps, library 1"
            },
            "id": "asm_flags1",
            "semantics": {"ontology": ["xs:string"]},
            "value": {
                "default": "",
                "visible": true,
                "validator": "",
                "type": "string",
                "required": false
            }
        }
    ]
}