{
    "longDescription": "General Linear Model",
    "outputs": [],
    "inputs": [
        {
            "defaultValue": "",
            "details": {
                "visible": true,
                "description": "trait file",
                "label": "trait"
            },
            "id": "rtrait",
            "semantics": {
                "minCardinality": 1,
                "ontology": ["xs:string"],
                "fileTypes": [""]
            },
            "value": {
                "default": "",
                "visible": true,
                "validator": "",
                "required": true
            }
        },
        {
            "defaultValue": "",
            "details": {
                "visible": true,
                "description": "map file",
                "label": "map"
            },
            "id": "mapfile",
            "semantics": {
                "minCardinality": 1,
                "ontology": ["xs:string"],
                "fileTypes": [""]
            },
            "value": {
                "default": "",
                "visible": true,
                "validator": "",
                "required": false
            }
        },
        {
            "defaultValue": "",
            "details": {
                "visible": true,
                "description": "structure file",
                "label": "structure"
            },
            "id": "qstructure",
            "semantics": {
                "minCardinality": 1,
                "ontology": ["xs:string"],
                "fileTypes": [""]
            },
            "value": {
                "default": "",
                "visible": true,
                "validator": "",
                "required": false
            }
        },
        {
            "defaultValue": "",
            "details": {
                "visible": true,
                "description": "marker file in hapmap format",
                "label": "marker"
            },
            "id": "hmarker",
            "semantics": {
                "minCardinality": 1,
                "ontology": ["xs:string"],
                "fileTypes": [""]
            },
            "value": {
                "default": "",
                "visible": true,
                "validator": "",
                "required": true
            }
        }
    ],
    "parallelism": "SERIAL",
    "executionType": "HPC",
    "available": true,
    "defaultProcessors": 1,
    "executionHost": "lonestar4.tacc.teragrid.org",
    "public": true,
    "defaultMemory": 4,
    "id": "TASSEL4-GLM-0.0.1u1",
    "checkpointable": false,
    "deploymentPath": "/ipcservices/applications/TASSEL4-GLM-0.0.1u1.zip",
    "label": "GLM",
    "shortDescription": "TASSEL4 GLM",
    "helpURI": "http://www.maizegenetics.net",
    "defaultRequestedTime": "24:00:00",
    "version": "0.0.1",
    "templatePath": "glm_wrapper.sh",
    "modules": [
        "purge",
        "load TACC",
        "load irods"
    ],
    "revision": 1,
    "tags": [
        "GWAS",
        "GLM"
    ],
    "testPath": "glm_test_wrapper.sh",
    "ontolog": ["http://sswapmeet.sswap.info/sequenceServices/SequenceServices"],
    "name": "TASSEL4-GLM",
    "parameters": [
        {
            "defaultValue": "",
            "details": {
                "description": null,
                "label": "Format of genotype data"
            },
            "id": "markerformat",
            "semantics": {"ontology": ["xs:string"]},
            "value": {
                "default": "",
                "visible": true,
                "validator": "",
                "type": "string",
                "required": true
            }
        },
        {
            "defaultValue": "",
            "details": {
                "description": "Numerical file",
                "label": "Output file"
            },
            "id": "export",
            "semantics": {"ontology": ["xs:string"]},
            "value": {
                "default": "",
                "visible": true,
                "validator": "",
                "type": "string",
                "required": true
            }
        },
        {
            "defaultValue": "0.05",
            "details": {
                "description": "Minimal Allele Frequency",
                "label": "Minimal Allele Frequency"
            },
            "id": "filter",
            "semantics": {"ontology": ["xs:float"]},
            "value": {
                "default": "0.05",
                "visible": true,
                "validator": "",
                "type": "number",
                "required": true
            }
        },
        {
            "defaultValue": "1",
            "details": {
                "description": "Maximal P value",
                "label": "Maximal P value"
            },
            "id": "maxp",
            "semantics": {"ontology": ["xs:float"]},
            "value": {
                "default": "1",
                "visible": true,
                "validator": "",
                "type": "number",
                "required": true
            }
        }
    ]
}